<svg width="18" height="21" viewBox="0 0 18 21" fill="none" xmlns="http://www.w3.org/2000/svg">
<path fill-rule="evenodd" clip-rule="evenodd" d="M15.865 3.1238C16.302 3.2768 16.594 3.6888 16.594 4.1518V10.9248C16.594 12.8178 15.906 14.6248 14.691 16.0248C14.08 16.7298 13.307 17.2788 12.486 17.7228L8.928 19.6448L5.364 17.7218C4.542 17.2778 3.768 16.7298 3.156 16.0238C1.94 14.6238 1.25 12.8158 1.25 10.9208V4.1518C1.25 3.6888 1.542 3.2768 1.979 3.1238L8.561 0.810798C8.795 0.728798 9.05 0.728798 9.283 0.810798L15.865 3.1238Z" stroke="#0779E4" stroke-width="1.5" stroke-linecap="round" stroke-linejoin="round"/>
</svg>
